{
  "1": {
    "id": "GRP_01",
    "titolo": "Eni Station +",
    "domande": {
      "1": {
        "id": "DOM_00_a",
        "type": "domanda",
        "titolo": "Cosa è l’App Eni Station +?",
        "risposta": "L’App Eni Station + è il nuovo device digitale di eni che permette di effettuare le operazioni legate al rifornimento carburante, ovvero il pagamento e l’eventuale accredito punti You&Eni, senza necessità di utilizzare né contanti, né una carta loyalty fisica."
      },
      "2": {
        "id": "DOM_00_b",
        "type": "domanda",
        "titolo": "Quali sono i principali vantaggi dell’App Eni Station +?",
        "risposta": "1) Possibilità di aderire al programma You&Eni direttamente dal proprio smartphone, senza necessità di una carta fisica e senza doversi rivolgersi al Gestore per l’emissione della stessa.\n2) Possibilità di effettuare il pagamento dei rifornimenti tramite l’App, velocizzando tale pagamento anche al Più Servito\n3) Se si è iscritti al programma You&Eni, accumulo automatico dei punti in caso di pagamento dei rifornimenti tramite l’App e accumulo più rapido dei punti grazie ad una meccanica di raccolta più premiante rispetto alla carta fisica\n4) Possibilità di partecipare ad iniziative promozionali dedicate"
      }
    }
  },
  "2": {
    "id": "GRP_02",
    "titolo": "Iscrizione",
    "domande": {
      "1": {
        "id": "DOM_01_a",
        "type": "domanda",
        "titolo": "Posso scaricare l'App Eni Station+ senza essere iscritto al servizio?",
        "risposta": "Certamente: puoi scaricare l'App dallo store di riferimento per il tuo smartphone e seguire le istruzioni di iscrizione che appariranno all'apertura; se sei già in possesso delle credenziali You&Eni o Eni Pay puoi utilizzare queste ultime per accedere."
      },
      "2": {
        "id": "DOM_02",
        "type": "domanda",
        "titolo": "Posso iscrivere diverse persone con lo stesso telefono?",
        "risposta": "Si. Tuttavia, poiché l'utilizzo della App è personale e riservato e contiene dati sensibili, nel caso in cui lo stesso telefono sia utilizzato da più persone iscritte all’App è assolutamente necessario eseguire il logout dopo ogni utilizzo dell’App e non selezionare l'opzione “Resta collegato”."
      },
      "3": {
        "id": "DOM_03",
        "type": "domanda",
        "titolo": "Quanto costa l'App Eni Station +?",
        "risposta": "L’App non prevede costi aggiuntivi rispetto all’importo dei rifornimenti. Per le sole carte di pagamento non provviste di meccanismo di protezione 3DSecure (Mastercard Securcode o Verified By Visa), sarà eseguita una procedura per la verifica della carta che prevede un addebito o pre-autorizzazione(a seconda della procedura prevista dall’istituto finanziario emittente la carta) di una somma variabile compresa tra 0,01 € e 2,00 € che sarà immediatamente riaccreditata. Recupera il valore dell’addebito temporaneo dall’estratto conto associato alla carta ed utilizzalo per verificare la carta di pagamento tramite l’apposita funzione “Verifica carta”."
      },
      "4": {
        "id": "DOM_04",
        "type": "domanda",
        "titolo": "Posso iscrivermi all’App Eni Station + anche se non sono possessore di una carta di pagamento?",
        "risposta": "Si. La carta di pagamento non è necessaria, ma ti facilita l’utilizzo dell'App per pagare i tuoi rifornimenti presso le Eni Station abilitate all’uso dell’App in modalità pagamento. Se vuoi conoscere le Eni Station abilitate, consulta nell’App la sezione Eni Station Finder."
      },
      "5": {
        "id": "DOM_05",
        "type": "domanda",
        "titolo": "Posso iscrivermi anche se non sono possessore di una carta You&Eni?",
        "risposta": "Si. La carta You&Eni non è necessaria: attraverso l’App potrai richiedere l’attivazione di una You&Eni digitale per accumulare punti ad ogni rifornimento. Se vuoi saperne di più sul programma di loyalty You&Eni visita enistation.com."
      },
      "6": {
        "id": "DOM_06",
        "type": "domanda",
        "titolo": "Cosa occorre per effettuare l'iscrizione al servizio?",
        "risposta": "Durante l'iscrizione ti verranno richiesti i seguenti dati:\nun indirizzo email valido che puoi consultare agevolmente;\nnome e cognome;\nsesso;\ndata di nascita;\ncittà e provincia di nascita;\ncodice fiscale;\nnumero di cellulare.\nAccertati di avere a disposizione tutti questi dati prima di iniziare l'iscrizione per non doverla interrompere a metà strada.\nDovrai scegliere una password di minimo 8 caratteri che contenga almeno una lettera maiuscola, una lettera minuscola e un numero per proteggere l’accesso all’App e un codice segreto di 4 cifre per autorizzare le operazioni di pagamento e la conversione dei punti You&Eni in voucher carburante.\nPotrai configurare nell’App una o più carte di credito o prepagate (carte You&Eni credit o pre-paid, MasterCard, Visa, Maestro e VPay), sulle quali poi verranno addebitati gli acquisti. Ti consigliamo quindi di avere a portata di mano anche la o le carte di credito o prepagate che vorrai configurare per procedere più speditamente; sulle carte non provviste di meccanismo di sicurezza 3DSecure dovrà essere disponibile un credito di almeno 2,00 € per eseguire la procedura. Per le carte su cui è previsto il meccanismo di sicurezza 3DSecure, verifica che sia attiva la protezione MasterCard Secure Code o Verified by Visa, contattando l'istituto emittente della carta. Consulta la sezione “Modalità di pagamento” delle FAQ per saperne di più. Per conoscere cosa sono MasterCard Secure Code o Verified by Visa consulta la FAQ dedicata.\nInfine potrai attivare una carta You&Eni digitale per accumulare punti del programma fedeltà You&Eni ad ogni rifornimento; potrai accumulare punti sia nel caso in cui paghi con l’App Eni Station +, sia nel caso in cui decidi di pagare con altra modalità. Se sei già in possesso di una carta loyalty You&Eni, questa sarà digitalizzata ed il tuo saldo punti sarà trasferito automaticamente sulla carta digitale."
      },
      "7": {
        "id": "DOM_07",
        "type": "domanda",
        "titolo": "Se cambio smartphone devo eseguire nuovamente tutta la procedura di iscrizione?",
        "risposta": "Non dovrai fare di nuovo l'iscrizione. Ti basterà scaricare di nuovo l'App e accedere con le stesse credenziali impiegate in precedenza per ritrovare tutti i tuoi dati: carte per il pagamento, You&Eni Digitale, storico transazioni, storico You&Eni, voucher carburante, ecc..."
      },
      "8": {
        "id": "DOM_08",
        "type": "domanda",
        "titolo": "Possiedo più di uno smartphone, per usare l’App con ciascuno di essi devo fare un’iscrizione per ognuno?",
        "risposta": "Non è necessario effettuare più iscrizioni, puoi utilizzare le stesse credenziali Eni Station + su diversi telefoni in tuo possesso (per un massimo di 3). Ti basterà scaricare e installare l’App su ognuno di essi e poi eseguire l'accesso con le stesse credenziali. Al primo accesso su ciascun dispositivo, ti sarà inviato un SMS contenente il codice di verifica recuperalo ed inseriscilo per autorizzare l’accesso su tale dispositivo."
      },
      "9": {
        "id": "DOM_09",
        "type": "domanda",
        "titolo": "Sono già in possesso di credenziali You&Eni cosa devo fare?",
        "risposta": "Se sei già in possesso di credenziali You&Eni puoi accedere all’App e completare il processo di iscrizione in modo semplificato; i tuoi dati anagrafici vengono recuperati e precompilati, dovrai semplicemente verificarli e procedere con l’iscrizione."
      },
      "10": {
        "id": "DOM_10",
        "type": "domanda",
        "titolo": "Sono già in possesso di credenziali Eni Pay cosa devo fare?",
        "risposta": "Se sei già in possesso di credenziali Eni Pay puoi accedere all’App e completare il processo di iscrizione in modo semplificato.\nAnche se avevi già configurato una carta di pagamento, per ragioni di sicurezza dovrai nuovamente scegliere un codice segreto di 4 cifre e aggiungere nuovamente la tua carta di pagamento. Puoi configurare la tua carta di pagamento al primo accesso oppure successivamente dalla sezione “Profilo” dell’App."
      }
    }
  },
  "3": {
    "id": "GRP_03",
    "titolo": "Come funziona",
    "domande": {
      "1": {
        "id": "DOM_11",
        "type": "domanda",
        "titolo": "Quali rifornimenti di carburante posso pagare con l’App?",
        "risposta": "Attraverso l’utilizzo della tecnologia Eni Pay integrata nell’App Eni Station + potrai pagare i rifornimenti di carburante eseguiti in modalità Iperself con pagamento anticipato, Iperself con pagamento posticipato al gestore, Servito e Più Servito. Sono esclusi i rifornimenti per carburante GPL e Gas metano."
      },
      "2": {
        "id": "DOM_12",
        "type": "domanda",
        "titolo": "Come faccio ad eseguire il pagamento del carburante in autonomia attraverso l'App?",
        "risposta": "Quando ti trovi all’interno di una Eni Station abilitata all’uso dell’App in modalità pagamento, l’applicazione, utilizzando la localizzazione GPS attiva sul dispositivo, ti mostra la lista degli erogatori attivi. Scegli l’erogatore con la modalità di rifornimento per te più comoda:\n\n\nSe ti sei fermato in prossimità di un erogatore in modalità Iperself con pagamento anticipato, seleziona il numero dell’erogatore dalla lista visibile sull’App. Dopo aver scelto l’erogatore, l’applicazione ti propone l’opzione “Pieno” e la lista di importi preconfigurati per il tuo rifornimento. Se nessuna di queste scelte soddisfa le tue esigenze, puoi impostare un importo personalizzato compreso tra 5,00 € e 103,00 € scegliendo l’opzione “Altro”. Una volta scelto l’importo, l’App ti presenta una sintesi del rifornimento che stai per configurare. La carta di pagamento che hai impostato come preferita sarà selezionata automaticamente per la pre-autorizzazione all’addebito dell’importo. Nel caso in cui tu abbia selezionato l’opzione “Pieno” sarà eseguita la pre-autorizzazione per l’importo massimo di 103,00 €. Se hai configurato altre carte di pagamento nel tuo account, puoi scegliere di addebitare questo rifornimento su una carta differente da quella predefinita: questa scelta non sarà memorizzata per i rifornimenti successivi. Per procedere con il rifornimento ti sarà, quindi, richiesto di inserire il codice segreto di 4 cifre scelto al momento dell’iscrizione e l’applicazione ti informerà quando è il momento di sganciare l’erogatore. A questo punto puoi eseguire il rifornimento, al termine del quale dovrai riagganciare l’erogatore. Attendi la ricevuta digitale del rifornimento (visualizzabile all’interno dell’App) dove potrai controllare tutti i dettagli dello stesso.\n\n\nSe ti sei fermato in prossimità di un erogatore in modalità Iperself con pagamento posticipato al gestore o in modalità Servito o Più Servito, esegui il rifornimento in autonomia oppure rivolgiti all’addetto. Al termine del rifornimento seleziona, attraverso l’App, il numero dell’erogatore per visualizzare i dettagli del rifornimento stesso e verificare che tutte le informazioni corrispondano: importo, tipologia di carburante, litri erogati, punto vendita, erogatore, data e ora. L’App ti propone di addebitare il rifornimento sulla carta di pagamento che hai impostato come preferita. Se hai configurato altre carte di pagamento nel tuo account, puoi scegliere di addebitare questo rifornimento su una carta differente da quella predefinita: questa scelta non sarà memorizzata per i rifornimenti successivi. Per procedere con il rifornimento, ti sarà quindi richiesto di inserire il codice segreto di 4 cifre scelto al momento dell’iscrizione e l’applicazione ti informerà quando è il momento di sganciare l’erogatore. Inserisci il codice segreto di 4 cifre per pagare il rifornimento e attendi la ricevuta digitale del rifornimento (visualizzabile all’interno dell’App) da cui potrai controllare tutti i dettagli. "
      },
      "3": {
        "id": "DOM_13",
        "type": "domanda",
        "titolo": "Non so come pagare il mio rifornimento attraverso l'App?",
        "risposta": "L’App rappresenta una soluzione semplificata che ti supporta nel pagamento dei tuoi rifornimenti; se hai bisogno di supporto nel pagamento, seleziona l’opzione “Hai bisogno di aiuto?” dalla schermata contenente la lista degli erogatori. L’App ti propone la lista delle modalità operative disponibili sul punto vendita (es. Iperself, Più Servito, etc.): scegli la modalità di rifornimento che preferisci per visualizzare gli erogatori disponibili. Segui le istruzioni riportate nell’App prima di selezionare l’erogatore, l’applicazione ti supporterà passo-passo fino al completamento del rifornimento."
      },
      "4": {
        "id": "DOM_14",
        "type": "domanda",
        "titolo": "Come funziona il pagamento del carburante nell'Eni Café&Shop?",
        "risposta": "Il pagamento del carburante nell’Eni Café&Shop è abilitato solo per i rifornimenti eseguiti presso erogatori che operano in modalità Iperself con pagamento posticipato al gestore. In questo caso, dopo aver effettuato il rifornimento in autonomia, seleziona l’erogatore dalla lista presente sull’App e - dalla schermata dell’App contenente i dettagli del rifornimento - scegli l’opzione “Vuoi pagare alla cassa?”. L’App ti presenta la lista delle casse attive per il punto vendita. Comunica all’addetto dell’Eni Café&Shop che intendi pagare con l’App ed il numero dell’erogatore presso cui hai effettuato rifornimento; attendi che l’addetto confermi di aver autorizzato il pagamento tramite App. La App ti mostrerà l'importo dovuto: controlla con attenzione che corrisponda effettivamente al tuo rifornimento. Se è tutto a posto, puoi procedere al pagamento inserendo il tuo codice segreto di 4 cifre. Attendi qualche secondo e nella tua App visualizzerai la ricevuta digitale."
      },
      "5": {
        "id": "DOM_15",
        "type": "domanda",
        "titolo": "Non voglio attivare il GPS! Posso usare lo stesso l'App?",
        "risposta": "Purtroppo non è possibile utilizzare le funzionalità di pagamento senza il supporto alla localizzazione GPS. "
      },
      "6": {
        "id": "DOM_16",
        "type": "domanda",
        "titolo": "Come fa l’App a sapere in quale Eni Station mi trovo?",
        "risposta": "L'App riconosce la tua posizione grazie all'attivazione del GPS, così quando apri l’App per effettuare il pagamento vedrai subito l'elenco degli erogatori abilitati; verifica che l’Eni Station riconosciuta automaticamente sia effettivamente quella in cui ti trovi."
      },
      "7": {
        "id": "DOM_17",
        "type": "domanda",
        "titolo": "Come fa l’App a sapere presso quale erogatore sto facendo rifornimento?",
        "risposta": "Sarai tu a determinare l’erogatore presso cui effettuare il pagamento del rifornimento semplicemente selezionando il numero dall'elenco degli erogatori abilitati."
      },
      "8": {
        "id": "DOM_18",
        "type": "domanda",
        "titolo": "Quali modalità di rifornimento sono supportate dall’App?",
        "risposta": "L’App supporta la modalità di rifornimento Iperself con pagamento anticipato, la modalità di rifornimento Iperself con pagamento posticipato al gestore e la modalità di rifornimento Servito o Più Servito. Puoi riconoscere gli erogatori abilitati al servizio dalla presenza del materiale di comunicazione dedicato a Eni Station +.Per ogni dubbio puoi comunque rivolgerti all’addetto dell’Eni Station."
      },
      "9": {
        "id": "DOM_19",
        "type": "domanda",
        "titolo": "Posso pagare il rifornimento in modalità Iperself con l'App anche se è presente l'operatore dell'Eni Station?",
        "risposta": "Sì, puoi pagare con l’App presso l'erogatore anche in orario di apertura se l'erogatore è abilitato. Nella modalità Iperself con pagamento anticipato puoi procedere in autonomia. Invece in modalità Iperself con pagamento posticipato al gestore, al termine del rifornimento devi utilizzare l’App una volta che il rifornimento è terminato."
      },
      "10": {
        "id": "DOM_20",
        "type": "domanda",
        "titolo": "Posso usare l'App per pagare il rifornimento in modalità Più Servito?",
        "risposta": "Si, puoi pagare con l'App anche il rifornimento in modalità Più Servito. Puoi riconoscere gli erogatori abilitati al servizio per la presenza del materiale di comunicazione dedicato a Eni Station +. Per ogni dubbio puoi comunque rivolgerti all’addetto dell’Eni Station.  Ricordati di utilizzare l’App solo dopo che l’addetto ha completato il rifornimento. "
      },
      "11": {
        "id": "DOM_21",
        "type": "domanda",
        "titolo": "Come faccio a sapere se la procedura di pagamento è andata a buon fine?",
        "risposta": "Alla fine della procedura di pagamento l’App mostra la ricevuta digitale. Questa schermata ti conferma che l'operazione è andata a buon fine."
      },
      "12": {
        "id": "DOM_22",
        "type": "domanda",
        "titolo": "Come faccio a eseguire una verifica sui pagamenti effettuati?",
        "risposta": "Ogni pagamento che effettui tramite App sarà registrato nella sezione \"Storico\" presente nell’App stessa, sotto la scheda “EniPay”. Inoltre, per ogni transazione completata, per tua comodità, ti verrà automaticamente inviata un’email riepilogativa."
      },
      "13": {
        "id": "DOM_23",
        "type": "domanda",
        "titolo": "Ho una nuova carta di credito. Come faccio a registrarla nell'App se è ancora presente un'altra carta di credito?",
        "risposta": "In ogni momento puoi eliminare o aggiungere all’App carte di credito e prepagate. Per farlo devi accedere alla sezione \"Profilo\" dell’App e poi scegliere la voce \"Carte di pagamento\". La pagina mostra l'elenco delle carte già configurate e, in fondo alla schermata, c'è il comando \"Configura una nuova carta\" per avviare la configurazione di una nuova carta di pagamento. Puoi impostare una carta di pagamento come preferita, ma puoi comunque scegliere ad ogni acquisto quale carta utilizzare, tra quelle configurate. "
      },
      "14": {
        "id": "DOM_24",
        "type": "domanda",
        "titolo": "La mia carta di pagamento è scaduta e l'App non mi fa eseguire pagamenti. Come posso fare?",
        "risposta": "Se la tua carta è scaduta, i dati che hai inserito non sono più validi. Dovrai rimuovere la carta scaduta e poi configurare una nuova carta."
      }
    }
  },
  "4": {
    "id": "GRP_04",
    "titolo": "Modalità di pagamento",
    "domande": {
      "1": {
        "id": "DOM_25",
        "type": "domanda",
        "titolo": "Come funziona il pagamento con l'App?",
        "risposta": "I pagamenti possono avvenire mediante l’utilizzo di carte di pagamento oppure di credito derivante da voucher carburante. Per maggiori informazioni sui voucher consulta la FAQ di seguito riportata."
      },
      "2": {
        "id": "DOM_26",
        "type": "domanda",
        "titolo": "Che cosa è il credito voucher?",
        "risposta": "L’App consente di gestire/utilizzare voucher carburante ottenuti direttamente da Eni o da partner di Eni. Puoi consultare la lista dei tuoi voucher nella sezione “Voucher” dell’App. Per ciascuno dei voucher caricati nell’App puoi accedere ad una scheda di dettaglio e conoscere le relative condizioni di utilizzo."
      },
      "3": {
        "id": "DOM_29",
        "type": "domanda",
        "titolo": "Cosa devo fare per utilizzare il voucher?",
        "risposta": "L’App utilizza in modo automatico i tuoi voucher per il pagamento dei rifornimenti in due modalità differenti:\n\n- se hai configurato una carta di pagamento, l’App utilizzerà automaticamente i voucher per ridurre l’importo da addebitare sulla carta di pagamento. Alcuni dei voucher in tuo possesso potrebbero avere delle restrizioni nell’utilizzo (es. importo minimo del rifornimento, etc.): in tali casi, l’App provvederà in automatico a selezionare e utilizzare i voucher idonei per ridurre l’importo da corrispondere con la carta di pagamento. Nel caso di rifornimento effettuato in modalità Iperself con pagamento anticipato, la pre-autorizzazione all’addebito dell’importo sarà effettuata sulla carta di pagamento. \n\n- Se non hai configurato una carta di pagamento, l’App utilizzerà esclusivamente i voucher per pagare i rifornimenti; nel caso di rifornimento effettuato in modalità Iperself con pagamento anticipato, la pre-autorizzazione dell’importo sarà effettuata per l’intero importo sul credito voucher. In questo caso saranno considerati solo i voucher che possono essere utilizzati senza alcuna restrizione (es. importo minimo del rifornimento, etc.)."
      },
      "4": {
        "id": "DOM_27",
        "type": "domanda",
        "titolo": "Quali sono le carte di credito consentite da Eni Station +?",
        "risposta": "Puoi configurare nell’App le tue carte You&Eni credit o pre-paid oltre a tutte le carte di credito, prepagate e di debito dei circuiti MasterCard, Visa, Maestro e VPay.\nSe la tua carta non è provvista di meccanismo di protezione 3DSecure (Mastercard Securcode o Verified By Visa), è necessario che sul conto collegato sia disponibile un credito di almeno 2 euro per la verifica della carta, che avviene mediante addebito o pre-autorizzazione, immediatamente stornati.\nPer le carte su cui è previsto il meccanismo di protezione, verifica che sia attiva la protezione MasterCard Secure Code o Verified by Visa, contattando l'istituto emittente della carta; in caso contrario la configurazione della carta di pagamento potrebbe fallire. Per conoscere cosa sono MasterCard Secure Code o Verified by Visa consulta la FAQ dedicata."
      },
      "5": {
        "id": "DOM_28",
        "type": "domanda",
        "titolo": "Perché mi trovo un addebito di 1,90 euro sulla carta di pagamento configurata nell’App",
        "risposta": "È una misura di sicurezza per tutelarti da qualsiasi eventuale tentativo di utilizzo fraudolento.\nPer verificare che la carta appartenga proprio a te, viene eseguito, ed immediatamente stornato, sulla tua carta l’addebito di una somma compresa fra 0,01 e 2,00 euro. Per maggiori informazioni sulle procedure di sicurezza consulta la sezione “Sicurezza” delle presenti FAQ."
      },
      "6": {
        "id": "DOM_30",
        "type": "domanda",
        "titolo": "Devo consegnare il mio telefono al gestore dell'Eni Station per pagare?",
        "risposta": "Assolutamente no, il pagamento mediante App è totalmente autonomo e riservato. Il gestore se presente può aiutarti a individuare l'erogatore o a controllare i dati di rifornimento. Ma la procedura di acquisto, soprattutto per quanto riguarda l'inserimento del codice segreto per il pagamento, deve essere eseguita personalmente ed in maniera riservata."
      },
      "7": {
        "id": "DOM_31",
        "type": "domanda",
        "titolo": "L'addebito sulla carta di pagamento relativo ad ogni singolo acquisto viene effettuato subito o a fine mese?",
        "risposta": "L'acquisto viene contabilizzato immediatamente, mentre l'addebito viene effettuato secondo le tempistiche previste dall’istituto che ha emesso la carta ed il tipo di carta che è stata configurata."
      },
      "8": {
        "id": "DOM_32",
        "type": "domanda",
        "titolo": "Ogni volta che eseguo un pagamento devo riconfigurare tutti i dati della mia carta nell'App?",
        "risposta": "No, i dati della carta di credito dovranno essere inseriti una volta sola (al momento della configurazione della carta stessa), per ogni carta che si vuole configurare nella App. Ogni volta che esegui il pagamento, l'unico dato richiesto sarà il codice segreto che avrai scelto al momento dell’iscrizione all’App."
      }
    }
  },
  "5": {
    "id": "GRP_05",
    "titolo": "Accumulo punti You&Eni",
    "domande": {
      "1": {
        "id": "DOM_33",
        "type": "domanda",
        "titolo": "Posso accumulare punti You&Eni usando l’App Eni Station +? ",
        "risposta": "L’App consente di attivare una carta You&Eni digitale per accumulare punti del programma fedeltà You&Eni. Se sei già possessore di una carta You&Eni, l’App ti guiderà nella digitalizzazione della tua carta fisica e, nel caso in cui tu non abbia mai effettuato la registrazione nel sito enistation.com,per la tua sicurezza, l’App ti richiedere  di inserire le ultime 3 cifre del codice You&Eni riportato sul retro della tua carta. "
      },
      "2": {
        "id": "DOM_34",
        "type": "domanda",
        "titolo": "Posso comunque utilizzare la carta fisica You&Eni che ho digitalizzato?",
        "risposta": "Si, la tua carta fisica You&Eni rimane valida ed utilizzabile con le modalità previste dal programma You&Eni."
      },
      "3": {
        "id": "DOM_35",
        "type": "domanda",
        "titolo": "Digitalizzando la mia carta You&Eni che cosa succede al mio saldo punti?",
        "risposta": "La digitalizzazione della tua carta You&Eni non ha alcun effetto sul tuo saldo punti che viene recuperato automaticamente e reso disponibile anche attraverso l’App."
      },
      "4": {
        "id": "DOM_36",
        "type": "domanda",
        "titolo": "Come posso accumulare punti You&Eni mediante l’App?",
        "risposta": "Utilizzando l’App puoi accumulare punti You&Eni nelle Eni Station abilitate all’uso dell’App in modalità fedeltà in due modalità differenti:\n\nse hai pagato il tuo rifornimento con l’App, l’accumulo punti – se previsto - viene eseguito automaticamente secondo le regole previste dal programma You&Eni. In tale ipotesi potrai controllare i dettagli relativi ai punti guadagnati con ogni rifornimento attraverso la ricevuta digitale del pagamento che verrà visualizzata nell’App.\n\n-Se non hai pagato il tuo rifornimento con l’App potrai comunque utilizzare l’App per accumulare i punti. A tal fine, potrai generare dalla schermata principale dell’App un codice numerico da comunicare all’addetto: questo codice avrà una validità temporale limitata e sostituisce l’utilizzo della carta loyalty fisica. Qualora il codice dovesse scadere, potrai generarne un altro. Al termine dell’operazione visualizzerai una ricevuta digitale contente i dettagli relativi ai punti guadagnati. Per i dispositivi Android provvisti di tecnologia Near Field Communication (NFC) è, invece, possibile procedere in modalità contactless, semplicemente avvicinando il dispositivo al POS dell’addetto per completare l’operazione. Controlla il manuale del tuo dispositivo Android  per sapere se è provvisto della tecnologia NFC.\n\nConsulta il Regolamento del programma You&Eni per conoscere nel dettaglio come vengono accumulati i punti."
      },
      "5": {
        "id": "DOM_37",
        "type": "domanda",
        "titolo": "Come posso utilizzare i miei punti You&Eni nell’App?",
        "risposta": "Utilizzando l’App puoi convertire i tuoi punti esclusivamente in voucher carburante, che potrai utilizzare immediatamente per pagare i tuoi rifornimenti nelle Eni Station abilitate. Dalla schermata principale dell’App seleziona l’opzione “Vuoi convertire in voucher?” e, se hai già raggiunto una soglia punti sufficiente, potrai autorizzarne la conversione utilizzando il codice segreto di 4 cifre."
      },
      "6": {
        "id": "DOM_38",
        "type": "domanda",
        "titolo": "Che cosa sono le soglie di conversione You&Eni?",
        "risposta": "I punti You&Eni che hai accumulato possono essere convertiti dall’App solo per soglie predefinite (riportate nel Regolamento You&Eni). Tramite l’App non è possibile  richiedere conversioni per frazioni di punti non corrispondenti ad una soglia. Consulta il Regolamento del programma You&Eni per conoscere nel dettaglio le soglie di conversione."
      },
      "7": {
        "id": "DOM_39",
        "type": "domanda",
        "titolo": "Posso utilizzare i punti You&Eni accumulati solo nell’App?",
        "risposta": "No, i punti You&Eni che hai accumulato tramite App possono essere spesi anche in altre modalità (es. direttamente sul POS dell’addetto, sul sito web enistation.com). In questi casi, potrai richiedere i premi contenuti nel catalogo You&Eni o ottenere un voucher carburante anche per frazioni di punti. Consulta il Regolamento del programma You&Eni per conoscere nel dettaglio tutte le opzioni di conversione"
      }
    }
  },
  "6": {
    "id": "GRP_06",
    "titolo": "Promozioni",
    "domande": {
      "1": {
        "id": "DOM_40",
        "type": "domanda",
        "titolo": "Che cosa è il voucher MasterCard?",
        "risposta": "E' un voucher carburante da 5€ che ti viene riconosciuto se avrai scaricato l’App e configurato una carta di pagamento MasterCard. Consulta il dettagli della promozione relativa al voucher MasterCard per conoscerne le condizioni di utilizzo."
      },
      "2": {
        "id": "DOM_41",
        "type": "domanda",
        "titolo": "Chi ha diritto al voucher di MasterCard?",
        "risposta": "Chiunque abbia scaricato l'App, eseguito correttamente tutta la procedura di iscrizione alla sezione pagamento e associato una carta di pagamento appartenente al circuito MasterCard. Per ulteriori informazioni sulla procedura di iscrizione, consulta la sezione “Iscrizione” delle FAQ. "
      },
      "3": {
        "id": "DOM_42",
        "type": "domanda",
        "titolo": "Come faccio ad usufruire del voucher MasterCard?",
        "risposta": "Dopo aver associato la carta Mastercard riceverai il tuo voucher direttamente all’interno dell’App, che sarà conservato nella sezione “credito voucher” dell’App stessa. Ti sarà anche inviata una comunicazione all’indirizzo email utilizzato per l’iscrizione. Puoi utilizzare il voucher da 5€ effettuando un rifornimento presso una Eni Station abilitata (sono esclusi i rifornimenti di metano e GPL)."
      }
    }
  },
  "7": {
    "id": "GRP_07",
    "titolo": "Sicurezza",
    "domande": {
      "1": {
        "id": "DOM_43",
        "type": "domanda",
        "titolo": "Per eseguire il pagamento devo dare il telefono all'addetto dell’Eni Station?",
        "risposta": "No. L'App è personale e in essa transitano dati bancari riservati. Di conseguenza non è consigliabile né necessario farla utilizzare da altre persone. Il processo di pagamento è molto semplice e per maggiore sicurezza, ad ogni transazione, è richiesto l'inserimento del codice segreto di 4 cifre scelto al momento dell’iscrizione all’App, che devi conoscere solo tu e utilizzare in maniera riservata."
      },
      "2": {
        "id": "DOM_44",
        "type": "domanda",
        "titolo": "I dati della mia carta sono al sicuro nella App? Chi li potrà leggere?",
        "risposta": "L'App richiede l'inserimento di username e password per poterla usare e di un codice segreto di 4 cifre per poter effettuare ogni pagamento. I dati non risiedono nella memoria del tuo telefono, ma vengono salvati sui nostri server dotati di idonei dispositivi di sicurezza.\nInoltre, i dati che vengono scambiati fra la App e i nostri server viaggiano in maniera criptata su una rete protetta da accessi non autorizzati. "
      },
      "3": {
        "id": "DOM_45",
        "type": "domanda",
        "titolo": "Perché l'App mi chiede sempre di verificare la carta?",
        "risposta": "È una misura di sicurezza: per essere certi che sia proprio tu ad utilizzare la tua carta e tutelarti da qualsiasi eventuale tentativo di utilizzo fraudolento.\nSe, infatti, la carta che hai configurato non è dotata della protezione MasterCard Secure Code o Verified by Visa, per completare il processo di verifica devi controllare sull'estratto conto della carta l'importo che ti è stato addebitato, e immediatamente stornato. Dovrai, poi, accedere alla sezione “Carte di pagamento” contenuta nell’App e selezionare l’opzione “Verifica carta” per inserire l’importo di verifica della carta.\nSe non effettui la procedura di verifica appena descritta potrai, comunque, utilizzare l’App per una o più transazioni di importo massimo complessivo di 30,00 euro. Superata tale cifra dovrai comunque completare la procedura di verifica della carta per continuare a utilizzare l’App per i tuoi pagamenti. Ti consigliamo, pertanto, di effettuare la procedura prima possibile.\nPer le carte su cui è prevista, verifica che sia attiva la protezione MasterCard Secure Code o Verified by Visa, contattando l'istituto emittente della carta.\nPer conoscere cosa sono MasterCard Secure Code o Verified by Visa consulta la FAQ dedicata."
      },
      "4": {
        "id": "DOM_46",
        "type": "domanda",
        "titolo": "Qualcuno può rubare i miei dati di accesso o il mio codice segreto?",
        "risposta": "Gli standard di sicurezza di Eni sono molto elevati, ma anche tu puoi fare la tua parte. Ti consigliamo di seguire alcune semplici regole di sicurezza per essere certo di mantenere la riservatezza dei tuoi dati di accesso durante le normali operazioni quotidiane:\n\n-Username, password e codice segreto sono dati strettamente personali, conservali gelosamente e non comunicarli mai a terze persone;\n\n- Cambiare periodicamente password e codice segreto è una buona norma di sicurezza;\n\n- Se hai bisogno di annotare dati di accesso e codice segreto, non farlo sullo stesso smartphone ma su altri supporti cartacei o digitali;\n\n- Quando digiti i dati di accesso e il codice segreto fallo in maniera riservata e protetta da sguardi indiscreti."
      },
      "5": {
        "id": "DOM_47",
        "type": "domanda",
        "titolo": "Che cosa è il phishing e quanto devo preoccuparmi?",
        "risposta": "Consulta la pagina enistation.com/contatti/sicurezza per sapere cosa è il phishing e quali sono le policy di Eni al riguardo.\nTi informiamo che Eni Station + non invierà mai comunicazioni via mail per richiederti di immettere dati di accesso o codice segreto né rispondendo alla mail né cliccando su un link in essa contenuto."
      },
      "6": {
        "id": "DOM_48",
        "type": "domanda",
        "titolo": "Quante e quali mail mi arriveranno da Eni Station +?",
        "risposta": "Eni Station + ti invierà solo email di servizio e solo nei seguenti casi:\n\n- Durante l'iscrizione, per verificare la tua mail e per confermarti che l'iscrizione è stata completata con successo.\n\n-Subito dopo ogni pagamento che esegui presso le Eni Station abilitate, per riepilogarti i dati di acquisto.\n\n- In caso di recupero username per ricordarti quale indirizzo email hai utilizzato in fase di iscrizione.\n\n- In caso di recupero password per inviarti la password temporanea da modificare al primo accesso.\nPer essere certo che una comunicazione ricevuta venga effettivamente da Eni Station + controlla che il mittente sia noreply@mail.enistationplus.com. In nessun caso ti verrà mai richiesto di rispondere ad una mail di servizio. Per comunicare con l'assistenza potrai in ogni momento chiamare il call center al numero 800.900.700."
      },
      "7": {
        "id": "DOM_49",
        "type": "domanda",
        "titolo": "Che cosa sono MasterCard Secure Code e Verified by Visa?",
        "risposta": "I sistemi di protezione MasterCard Secure Code e Verified by Visa sono procedure che aumentano ulteriormente il livello di sicurezza delle transazioni, scongiurando l'utilizzo fraudolento della tua carta da parte di terze persone.\nLe procedure di verifica della carta variano in base all'istituto bancario o finanziario. Consulta l'istituto emittente della tua carta per ulteriori informazioni."
      }
    }
  }
}