﻿{
  "status": {
    "statusCode": "OK_200",
    "statusMessage": null
  },
  "body": {
    "howTo": {
      "startFlow": "FLOW_1",
      "howToFlow": [{
        "name": "FLOW_1",
        "page": [{
          "title": "Come funziona",
          "text": "Sei in viaggio e...\nti viene voglia di prendere un buon caffè\noppure la tua auto ha bisogno di attenzioni",
          "action1": {
            "text": "Alla cassa",
            "image": "path.png",
            "destination": "tutorial://FLOW_2"
          },
          "action2": {
            "text": "Sul piazzale",
            "image": "path.png",
            "destination": "tutorial://FLOW_1_1"
          },
          "image": "https://bemp.eni.com/MPFrontendServlet/howto/img/1.0.gif"
        }]
      }, {
        "name": "FLOW_1_1",
        "page": [{
          "title": "Sul piazzale",
          "text": "Puoi scegliere\ndi fare rifornimento da solo oppure\n rimani seduto comodamente nel tuo veicolo",
          "action1": {
            "text": "Iperself",
            "image": "path.png",
            "destination": "tutorial://FLOW_4"
          },
          "action2": {
            "text": "Più Servito",
            "image": "path.png",
            "destination": "tutorial://FLOW_3"
          },
          "image": "https://bemp.eni.com/MPFrontendServlet/howto/img/1.1.gif"
        }]
      }, {
        "name": "FLOW_2",
        "page": [{
          "title": "Alla cassa",
          "text": "Scegli i prodotti che preferisci e\nchiedi di pagare il tuo acquisto\ncon Eni Pay",
          "image": "https://bemp.eni.com/MPFrontendServlet/howto/img/2.0.gif"
        }, {
          "title": "Alla cassa",
          "text": "Avvia l'app Eni Pay e\nseleziona dalla home page\nl'icona \"Alla cassa\"",
          "image": "https://bemp.eni.com/MPFrontendServlet/howto/img/2.1.gif"
        }, {
          "title": "Alla cassa",
          "text": "Seleziona dalla lista\n la cassa presso cui ti trovi\noppure identificala con il QR code",
          "image": "https://bemp.eni.com/MPFrontendServlet/howto/img/2.2.gif"
        }, {
          "title": "Alla cassa",
          "text": "Controlla che i dati\n dell'acquisto siano corretti\nprima di procedere con il pagamento",
          "image": "https://bemp.eni.com/MPFrontendServlet/howto/img/2.3.gif"
        }, {
          "title": "Alla cassa",
          "text": "Autorizza il pagamento\ninserendo il codice segreto\nassociato alla carta che stai utilizzando",
          "image": "https://bemp.eni.com/MPFrontendServlet/howto/img/2.4.gif"
        }, {
          "title": "Alla cassa",
          "text": "Visualizza la ricevuta\ndel tuo acquisto\ndirettamente sull'app Eni Pay",
          "image": "https://bemp.eni.com/MPFrontendServlet/howto/img/2.5.gif"
        }, {
          "title": "Alla cassa",
          "text": "Ora puoi gustare la tua colazione\nScopri come funziona il rifornimento\nnelle modalità Più Servito e Iperself",
          "image": "https://bemp.eni.com/MPFrontendServlet/howto/img/2.6.gif",
          "action1": {
            "text": "Rifornimento",
            "image": "",
            "destination": "tutorial://FLOW_1_1"
          },
          "action2": {
            "text": "Rifornimento",
            "image": "path.png",
            "destination": "tutorial://FLOW_1_1"
          }
        }]
      }, {
        "name": "FLOW_3",
        "page": [{
          "title": "Più Servito",
          "text": "Fermati con il tuo veicolo\nnella piazzola e comunica all'operatore\nl'importo che desideri rifornire",
          "image": "https://bemp.eni.com/MPFrontendServlet/howto/img/3.0.gif"
        }, {
          "title": "Più Servito",
          "text": "Avvia l'app Eni Pay e\nseleziona dalla home page\nl'icona \"Sul piazzale\"",
          "image": "https://bemp.eni.com/MPFrontendServlet/howto/img/3.1.gif"
        }, {
          "title": "Più Servito",
          "text": "Seleziona dalla lista\n l'erogatore presso cui ti trovi\noppure identificalo con il QR code",
          "image": "https://bemp.eni.com/MPFrontendServlet/howto/img/3.2.gif"
        }, {
          "title": "Più Servito",
          "text": "Controlla che i dati\n del rifornimento siano corretti\nprima di procedere con il pagamento",
          "image": "https://bemp.eni.com/MPFrontendServlet/howto/img/3.3.gif"
        }, {
          "title": "Più Servito",
          "text": "Autorizza il pagamento\ninserendo il codice segreto\nassociato alla carta che stai utilizzando",
          "image": "https://bemp.eni.com/MPFrontendServlet/howto/img/3.4.gif"
        }, {
          "title": "Più Servito",
          "text": "Visualizza la ricevuta\ndel tuo rifornimento\ndirettamente sull'app Eni Pay",
          "image": "https://bemp.eni.com/MPFrontendServlet/howto/img/3.5.gif"
        }, {
          "title": "Più Servito",
          "text": "Ora puoi continuare il tuo viaggio\noppure scopri l'acquisto all'Eni Café&Shop\no il rifornimento in modalità Iperself",
          "image": "https://bemp.eni.com/MPFrontendServlet/howto/img/3.6.gif",
          "action1": {
            "text": "Café&Shop",
            "image": "",
            "destination": "tutorial://FLOW_1"
          },
          "action2": {
            "text": "Iperself",
            "image": "",
            "destination": "tutorial://FLOW_4"
          }
        }]
      }, {
        "name": "FLOW_4",
        "page": [{
          "title": "Iperself",
          "text": "Fermati con il tuo veicolo\nnella piazzola in cui vuoi\neffettuare il rifornimento",
          "image": "https://bemp.eni.com/MPFrontendServlet/howto/img/4.0.gif"
        }, {
          "title": "Iperself",
          "text": "Avvia l'app Eni Pay e\nseleziona dalla home page\nl'icona \"Sul piazzale\"",
          "image": "https://bemp.eni.com/MPFrontendServlet/howto/img/4.1.gif"
        }, {
          "title": "Iperself",
          "text": "Seleziona dalla lista\n l'erogatore presso cui ti trovi\noppure identificalo con il QR code",
          "image": "https://bemp.eni.com/MPFrontendServlet/howto/img/4.2.gif"
        }, {
          "title": "Iperself",
          "text": "Seleziona l'importo del tuo rifornimento\noppure seleziona Altro e inseriscilo manualmente\noppure seleziona Pieno",
          "image": "https://bemp.eni.com/MPFrontendServlet/howto/img/4.3.gif"
        }, {
          "title": "Iperself",
          "text": "Controlla che i dati\n del rifornimento siano corretti\nprima di procedere con l'erogazione",
          "image": "https://bemp.eni.com/MPFrontendServlet/howto/img/4.4.gif"
        }, {
          "title": "Iperself",
          "text": "Autorizza il pagamento\ninserendo il codice segreto\nassociato alla carta che stai utilizzando",
          "image": "https://bemp.eni.com/MPFrontendServlet/howto/img/4.5.gif"
        }, {
          "title": "Iperself",
          "text": "Esegui il rifornimento\n e al termine riaggancia l'erogatore",
          "image": "https://bemp.eni.com/MPFrontendServlet/howto/img/4.6.gif"
        }, {
          "title": "Iperself",
          "text": "Visualizza la ricevuta\ndel tuo rifornimento\ndirettamente sull'app Eni Pay",
          "image": "https://bemp.eni.com/MPFrontendServlet/howto/img/4.7.gif"
        }, {
          "title": "Iperself",
          "text": "Ora puoi continuare il tuo viaggio\noppure scopri l'acquisto all'Eni Café&Shop\no il rifornimento in modalità Più Servito",
          "image": "https://bemp.eni.com/MPFrontendServlet/howto/img/4.8.gif",
          "action1": {
            "text": "Café&Shop",
            "image": "",
            "destination": "tutorial://FLOW_1"
          },
          "action2": {
            "text": "Più Servito",
            "image": "",
            "destination": "tutorial://FLOW_3"
          }
        }]
      }]
    }
  }
}