[
	{
		"app": {
			"icon": "",
			"name": "App di prova",
			"maincolor": "#3479fa"
		},
		"ios": {
			"version": "v 0.1",
			"link": "itms-services://?action=download-manifest&amp;url=https://www.dropbox.com/s/depgvvcnn8hx29n/VoucherMakerFaire.plist?dl%3D1",
			"icon": "./apple.png"
		}
	}
]